ImageNumber,ObjectNumber,Metadata_Channel,Metadata_Channel,Metadata_FileLocation,Metadata_Frame,Metadata_Series,Metadata_xpos,Metadata_ypos
1,1,CY5,CY5,file:///C:/Users/MDL/Documents/Arash/MECH493/2-segmentation/8bit/10x_8_CY5-x_2482-y_5388.png,0,0,2482,5388
2,1,CY5,CY5,file:///C:/Users/MDL/Documents/Arash/MECH493/2-segmentation/8bit/10x_8_CY5-x_2522-y_4277.png,0,0,2522,4277
3,1,CY5,CY5,file:///C:/Users/MDL/Documents/Arash/MECH493/2-segmentation/8bit/10x_8_CY5-x_2539-y_5447.png,0,0,2539,5447
4,1,CY5,CY5,file:///C:/Users/MDL/Documents/Arash/MECH493/2-segmentation/8bit/10x_8_CY5-x_2718-y_5852.png,0,0,2718,5852
5,1,CY5,CY5,file:///C:/Users/MDL/Documents/Arash/MECH493/2-segmentation/8bit/10x_8_CY5-x_2789-y_3067.png,0,0,2789,3067
6,1,CY5,CY5,file:///C:/Users/MDL/Documents/Arash/MECH493/2-segmentation/8bit/10x_8_CY5-x_2890-y_5923.png,0,0,2890,5923
7,1,CY5,CY5,file:///C:/Users/MDL/Documents/Arash/MECH493/2-segmentation/8bit/10x_8_CY5-x_2978-y_5772.png,0,0,2978,5772
8,1,CY5,CY5,file:///C:/Users/MDL/Documents/Arash/MECH493/2-segmentation/8bit/10x_8_CY5-x_3084-y_5141.png,0,0,3084,5141
8,2,CY5,CY5,file:///C:/Users/MDL/Documents/Arash/MECH493/2-segmentation/8bit/10x_8_CY5-x_3084-y_5141.png,0,0,3084,5141
9,1,CY5,CY5,file:///C:/Users/MDL/Documents/Arash/MECH493/2-segmentation/8bit/10x_8_CY5-x_3167-y_3660.png,0,0,3167,3660
10,1,CY5,CY5,file:///C:/Users/MDL/Documents/Arash/MECH493/2-segmentation/8bit/10x_8_CY5-x_3218-y_6332.png,0,0,3218,6332
11,1,CY5,CY5,file:///C:/Users/MDL/Documents/Arash/MECH493/2-segmentation/8bit/10x_8_CY5-x_3448-y_5531.png,0,0,3448,5531
12,1,CY5,CY5,file:///C:/Users/MDL/Documents/Arash/MECH493/2-segmentation/8bit/10x_8_CY5-x_3562-y_6123.png,0,0,3562,6123
13,1,CY5,CY5,file:///C:/Users/MDL/Documents/Arash/MECH493/2-segmentation/8bit/10x_8_CY5-x_3583-y_3544.png,0,0,3583,3544
14,1,CY5,CY5,file:///C:/Users/MDL/Documents/Arash/MECH493/2-segmentation/8bit/10x_8_CY5-x_3627-y_2624.png,0,0,3627,2624
15,1,CY5,CY5,file:///C:/Users/MDL/Documents/Arash/MECH493/2-segmentation/8bit/10x_8_CY5-x_3726-y_4299.png,0,0,3726,4299
16,1,CY5,CY5,file:///C:/Users/MDL/Documents/Arash/MECH493/2-segmentation/8bit/10x_8_CY5-x_3914-y_6621.png,0,0,3914,6621
17,1,CY5,CY5,file:///C:/Users/MDL/Documents/Arash/MECH493/2-segmentation/8bit/10x_8_CY5-x_3964-y_2899.png,0,0,3964,2899
18,1,CY5,CY5,file:///C:/Users/MDL/Documents/Arash/MECH493/2-segmentation/8bit/10x_8_CY5-x_4237-y_2371.png,0,0,4237,2371
19,1,CY5,CY5,file:///C:/Users/MDL/Documents/Arash/MECH493/2-segmentation/8bit/10x_8_CY5-x_4270-y_3841.png,0,0,4270,3841
20,1,CY5,CY5,file:///C:/Users/MDL/Documents/Arash/MECH493/2-segmentation/8bit/10x_8_CY5-x_4309-y_5355.png,0,0,4309,5355
21,1,CY5,CY5,file:///C:/Users/MDL/Documents/Arash/MECH493/2-segmentation/8bit/10x_8_CY5-x_4396-y_3755.png,0,0,4396,3755
22,1,CY5,CY5,file:///C:/Users/MDL/Documents/Arash/MECH493/2-segmentation/8bit/10x_8_CY5-x_4516-y_3210.png,0,0,4516,3210
24,1,CY5,CY5,file:///C:/Users/MDL/Documents/Arash/MECH493/2-segmentation/8bit/10x_8_CY5-x_4701-y_4773.png,0,0,4701,4773
25,1,CY5,CY5,file:///C:/Users/MDL/Documents/Arash/MECH493/2-segmentation/8bit/10x_8_CY5-x_4707-y_6748.png,0,0,4707,6748
26,1,CY5,CY5,file:///C:/Users/MDL/Documents/Arash/MECH493/2-segmentation/8bit/10x_8_CY5-x_4761-y_6336.png,0,0,4761,6336
27,1,CY5,CY5,file:///C:/Users/MDL/Documents/Arash/MECH493/2-segmentation/8bit/10x_8_CY5-x_4844-y_2332.png,0,0,4844,2332
29,1,CY5,CY5,file:///C:/Users/MDL/Documents/Arash/MECH493/2-segmentation/8bit/10x_8_CY5-x_4935-y_6722.png,0,0,4935,6722
30,1,CY5,CY5,file:///C:/Users/MDL/Documents/Arash/MECH493/2-segmentation/8bit/10x_8_CY5-x_4948-y_5670.png,0,0,4948,5670
31,1,CY5,CY5,file:///C:/Users/MDL/Documents/Arash/MECH493/2-segmentation/8bit/10x_8_CY5-x_5144-y_6358.png,0,0,5144,6358
32,1,CY5,CY5,file:///C:/Users/MDL/Documents/Arash/MECH493/2-segmentation/8bit/10x_8_CY5-x_5212-y_4556.png,0,0,5212,4556
33,1,CY5,CY5,file:///C:/Users/MDL/Documents/Arash/MECH493/2-segmentation/8bit/10x_8_CY5-x_5214-y_3952.png,0,0,5214,3952
33,2,CY5,CY5,file:///C:/Users/MDL/Documents/Arash/MECH493/2-segmentation/8bit/10x_8_CY5-x_5214-y_3952.png,0,0,5214,3952
34,1,CY5,CY5,file:///C:/Users/MDL/Documents/Arash/MECH493/2-segmentation/8bit/10x_8_CY5-x_5238-y_5943.png,0,0,5238,5943
35,1,CY5,CY5,file:///C:/Users/MDL/Documents/Arash/MECH493/2-segmentation/8bit/10x_8_CY5-x_5263-y_6345.png,0,0,5263,6345
36,1,CY5,CY5,file:///C:/Users/MDL/Documents/Arash/MECH493/2-segmentation/8bit/10x_8_CY5-x_5396-y_2816.png,0,0,5396,2816
37,1,CY5,CY5,file:///C:/Users/MDL/Documents/Arash/MECH493/2-segmentation/8bit/10x_8_CY5-x_5590-y_4252.png,0,0,5590,4252
38,1,CY5,CY5,file:///C:/Users/MDL/Documents/Arash/MECH493/2-segmentation/8bit/10x_8_CY5-x_5637-y_4698.png,0,0,5637,4698
39,1,CY5,CY5,file:///C:/Users/MDL/Documents/Arash/MECH493/2-segmentation/8bit/10x_8_CY5-x_5648-y_4935.png,0,0,5648,4935
40,1,CY5,CY5,file:///C:/Users/MDL/Documents/Arash/MECH493/2-segmentation/8bit/10x_8_CY5-x_5870-y_5425.png,0,0,5870,5425
41,1,CY5,CY5,file:///C:/Users/MDL/Documents/Arash/MECH493/2-segmentation/8bit/10x_8_CY5-x_5899-y_4241.png,0,0,5899,4241
42,1,CY5,CY5,file:///C:/Users/MDL/Documents/Arash/MECH493/2-segmentation/8bit/10x_8_CY5-x_5995-y_3651.png,0,0,5995,3651
43,1,CY5,CY5,file:///C:/Users/MDL/Documents/Arash/MECH493/2-segmentation/8bit/10x_8_CY5-x_6057-y_2705.png,0,0,6057,2705
44,1,CY5,CY5,file:///C:/Users/MDL/Documents/Arash/MECH493/2-segmentation/8bit/10x_8_CY5-x_6158-y_5372.png,0,0,6158,5372
45,1,CY5,CY5,file:///C:/Users/MDL/Documents/Arash/MECH493/2-segmentation/8bit/10x_8_CY5-x_6172-y_3044.png,0,0,6172,3044
46,1,CY5,CY5,file:///C:/Users/MDL/Documents/Arash/MECH493/2-segmentation/8bit/10x_8_CY5-x_6232-y_5503.png,0,0,6232,5503
48,1,CY5,CY5,file:///C:/Users/MDL/Documents/Arash/MECH493/2-segmentation/8bit/10x_8_CY5-x_6312-y_3292.png,0,0,6312,3292
49,1,CY5,CY5,file:///C:/Users/MDL/Documents/Arash/MECH493/2-segmentation/8bit/10x_8_CY5-x_6360-y_5354.png,0,0,6360,5354
50,1,CY5,CY5,file:///C:/Users/MDL/Documents/Arash/MECH493/2-segmentation/8bit/10x_8_CY5-x_6394-y_4441.png,0,0,6394,4441
51,1,CY5,CY5,file:///C:/Users/MDL/Documents/Arash/MECH493/2-segmentation/8bit/10x_8_CY5-x_6609-y_5506.png,0,0,6609,5506
52,1,CY5,CY5,file:///C:/Users/MDL/Documents/Arash/MECH493/2-segmentation/8bit/10x_8_CY5-x_6651-y_3597.png,0,0,6651,3597
53,1,CY5,CY5,file:///C:/Users/MDL/Documents/Arash/MECH493/2-segmentation/8bit/10x_8_CY5-x_6668-y_5052.png,0,0,6668,5052
54,1,CY5,CY5,file:///C:/Users/MDL/Documents/Arash/MECH493/2-segmentation/8bit/10x_8_CY5-x_6721-y_4577.png,0,0,6721,4577
55,1,CY5,CY5,file:///C:/Users/MDL/Documents/Arash/MECH493/2-segmentation/8bit/10x_8_CY5-x_6743-y_4813.png,0,0,6743,4813
57,1,DAPI,DAPI,file:///C:/Users/MDL/Documents/Arash/MECH493/2-segmentation/8bit/10x_8_DAPI-x_2522-y_4277.png,0,0,2522,4277
58,1,DAPI,DAPI,file:///C:/Users/MDL/Documents/Arash/MECH493/2-segmentation/8bit/10x_8_DAPI-x_2539-y_5447.png,0,0,2539,5447
63,1,DAPI,DAPI,file:///C:/Users/MDL/Documents/Arash/MECH493/2-segmentation/8bit/10x_8_DAPI-x_3084-y_5141.png,0,0,3084,5141
64,1,DAPI,DAPI,file:///C:/Users/MDL/Documents/Arash/MECH493/2-segmentation/8bit/10x_8_DAPI-x_3167-y_3660.png,0,0,3167,3660
65,1,DAPI,DAPI,file:///C:/Users/MDL/Documents/Arash/MECH493/2-segmentation/8bit/10x_8_DAPI-x_3218-y_6332.png,0,0,3218,6332
66,1,DAPI,DAPI,file:///C:/Users/MDL/Documents/Arash/MECH493/2-segmentation/8bit/10x_8_DAPI-x_3448-y_5531.png,0,0,3448,5531
67,1,DAPI,DAPI,file:///C:/Users/MDL/Documents/Arash/MECH493/2-segmentation/8bit/10x_8_DAPI-x_3562-y_6123.png,0,0,3562,6123
67,2,DAPI,DAPI,file:///C:/Users/MDL/Documents/Arash/MECH493/2-segmentation/8bit/10x_8_DAPI-x_3562-y_6123.png,0,0,3562,6123
70,1,DAPI,DAPI,file:///C:/Users/MDL/Documents/Arash/MECH493/2-segmentation/8bit/10x_8_DAPI-x_3726-y_4299.png,0,0,3726,4299
71,1,DAPI,DAPI,file:///C:/Users/MDL/Documents/Arash/MECH493/2-segmentation/8bit/10x_8_DAPI-x_3914-y_6621.png,0,0,3914,6621
72,1,DAPI,DAPI,file:///C:/Users/MDL/Documents/Arash/MECH493/2-segmentation/8bit/10x_8_DAPI-x_3964-y_2899.png,0,0,3964,2899
73,1,DAPI,DAPI,file:///C:/Users/MDL/Documents/Arash/MECH493/2-segmentation/8bit/10x_8_DAPI-x_4237-y_2371.png,0,0,4237,2371
75,1,DAPI,DAPI,file:///C:/Users/MDL/Documents/Arash/MECH493/2-segmentation/8bit/10x_8_DAPI-x_4309-y_5355.png,0,0,4309,5355
77,1,DAPI,DAPI,file:///C:/Users/MDL/Documents/Arash/MECH493/2-segmentation/8bit/10x_8_DAPI-x_4516-y_3210.png,0,0,4516,3210
80,1,DAPI,DAPI,file:///C:/Users/MDL/Documents/Arash/MECH493/2-segmentation/8bit/10x_8_DAPI-x_4707-y_6748.png,0,0,4707,6748
81,1,DAPI,DAPI,file:///C:/Users/MDL/Documents/Arash/MECH493/2-segmentation/8bit/10x_8_DAPI-x_4761-y_6336.png,0,0,4761,6336
82,1,DAPI,DAPI,file:///C:/Users/MDL/Documents/Arash/MECH493/2-segmentation/8bit/10x_8_DAPI-x_4844-y_2332.png,0,0,4844,2332
83,1,DAPI,DAPI,file:///C:/Users/MDL/Documents/Arash/MECH493/2-segmentation/8bit/10x_8_DAPI-x_4861-y_4601.png,0,0,4861,4601
83,2,DAPI,DAPI,file:///C:/Users/MDL/Documents/Arash/MECH493/2-segmentation/8bit/10x_8_DAPI-x_4861-y_4601.png,0,0,4861,4601
85,1,DAPI,DAPI,file:///C:/Users/MDL/Documents/Arash/MECH493/2-segmentation/8bit/10x_8_DAPI-x_4948-y_5670.png,0,0,4948,5670
87,1,DAPI,DAPI,file:///C:/Users/MDL/Documents/Arash/MECH493/2-segmentation/8bit/10x_8_DAPI-x_5212-y_4556.png,0,0,5212,4556
88,1,DAPI,DAPI,file:///C:/Users/MDL/Documents/Arash/MECH493/2-segmentation/8bit/10x_8_DAPI-x_5214-y_3952.png,0,0,5214,3952
88,2,DAPI,DAPI,file:///C:/Users/MDL/Documents/Arash/MECH493/2-segmentation/8bit/10x_8_DAPI-x_5214-y_3952.png,0,0,5214,3952
90,1,DAPI,DAPI,file:///C:/Users/MDL/Documents/Arash/MECH493/2-segmentation/8bit/10x_8_DAPI-x_5263-y_6345.png,0,0,5263,6345
92,1,DAPI,DAPI,file:///C:/Users/MDL/Documents/Arash/MECH493/2-segmentation/8bit/10x_8_DAPI-x_5590-y_4252.png,0,0,5590,4252
94,1,DAPI,DAPI,file:///C:/Users/MDL/Documents/Arash/MECH493/2-segmentation/8bit/10x_8_DAPI-x_5648-y_4935.png,0,0,5648,4935
95,1,DAPI,DAPI,file:///C:/Users/MDL/Documents/Arash/MECH493/2-segmentation/8bit/10x_8_DAPI-x_5870-y_5425.png,0,0,5870,5425
96,1,DAPI,DAPI,file:///C:/Users/MDL/Documents/Arash/MECH493/2-segmentation/8bit/10x_8_DAPI-x_5899-y_4241.png,0,0,5899,4241
97,1,DAPI,DAPI,file:///C:/Users/MDL/Documents/Arash/MECH493/2-segmentation/8bit/10x_8_DAPI-x_5995-y_3651.png,0,0,5995,3651
98,1,DAPI,DAPI,file:///C:/Users/MDL/Documents/Arash/MECH493/2-segmentation/8bit/10x_8_DAPI-x_6057-y_2705.png,0,0,6057,2705
99,1,DAPI,DAPI,file:///C:/Users/MDL/Documents/Arash/MECH493/2-segmentation/8bit/10x_8_DAPI-x_6158-y_5372.png,0,0,6158,5372
101,1,DAPI,DAPI,file:///C:/Users/MDL/Documents/Arash/MECH493/2-segmentation/8bit/10x_8_DAPI-x_6232-y_5503.png,0,0,6232,5503
103,1,DAPI,DAPI,file:///C:/Users/MDL/Documents/Arash/MECH493/2-segmentation/8bit/10x_8_DAPI-x_6312-y_3292.png,0,0,6312,3292
104,1,DAPI,DAPI,file:///C:/Users/MDL/Documents/Arash/MECH493/2-segmentation/8bit/10x_8_DAPI-x_6360-y_5354.png,0,0,6360,5354
105,1,DAPI,DAPI,file:///C:/Users/MDL/Documents/Arash/MECH493/2-segmentation/8bit/10x_8_DAPI-x_6394-y_4441.png,0,0,6394,4441
106,1,DAPI,DAPI,file:///C:/Users/MDL/Documents/Arash/MECH493/2-segmentation/8bit/10x_8_DAPI-x_6609-y_5506.png,0,0,6609,5506
107,1,DAPI,DAPI,file:///C:/Users/MDL/Documents/Arash/MECH493/2-segmentation/8bit/10x_8_DAPI-x_6651-y_3597.png,0,0,6651,3597
109,1,DAPI,DAPI,file:///C:/Users/MDL/Documents/Arash/MECH493/2-segmentation/8bit/10x_8_DAPI-x_6721-y_4577.png,0,0,6721,4577
110,1,DAPI,DAPI,file:///C:/Users/MDL/Documents/Arash/MECH493/2-segmentation/8bit/10x_8_DAPI-x_6743-y_4813.png,0,0,6743,4813
111,1,EGFP,EGFP,file:///C:/Users/MDL/Documents/Arash/MECH493/2-segmentation/8bit/10x_8_EGFP-x_2482-y_5388.png,0,0,2482,5388
112,1,EGFP,EGFP,file:///C:/Users/MDL/Documents/Arash/MECH493/2-segmentation/8bit/10x_8_EGFP-x_2522-y_4277.png,0,0,2522,4277
113,1,EGFP,EGFP,file:///C:/Users/MDL/Documents/Arash/MECH493/2-segmentation/8bit/10x_8_EGFP-x_2539-y_5447.png,0,0,2539,5447
114,1,EGFP,EGFP,file:///C:/Users/MDL/Documents/Arash/MECH493/2-segmentation/8bit/10x_8_EGFP-x_2718-y_5852.png,0,0,2718,5852
115,1,EGFP,EGFP,file:///C:/Users/MDL/Documents/Arash/MECH493/2-segmentation/8bit/10x_8_EGFP-x_2789-y_3067.png,0,0,2789,3067
116,1,EGFP,EGFP,file:///C:/Users/MDL/Documents/Arash/MECH493/2-segmentation/8bit/10x_8_EGFP-x_2890-y_5923.png,0,0,2890,5923
117,1,EGFP,EGFP,file:///C:/Users/MDL/Documents/Arash/MECH493/2-segmentation/8bit/10x_8_EGFP-x_2978-y_5772.png,0,0,2978,5772
118,1,EGFP,EGFP,file:///C:/Users/MDL/Documents/Arash/MECH493/2-segmentation/8bit/10x_8_EGFP-x_3084-y_5141.png,0,0,3084,5141
118,2,EGFP,EGFP,file:///C:/Users/MDL/Documents/Arash/MECH493/2-segmentation/8bit/10x_8_EGFP-x_3084-y_5141.png,0,0,3084,5141
119,1,EGFP,EGFP,file:///C:/Users/MDL/Documents/Arash/MECH493/2-segmentation/8bit/10x_8_EGFP-x_3167-y_3660.png,0,0,3167,3660
120,1,EGFP,EGFP,file:///C:/Users/MDL/Documents/Arash/MECH493/2-segmentation/8bit/10x_8_EGFP-x_3218-y_6332.png,0,0,3218,6332
121,1,EGFP,EGFP,file:///C:/Users/MDL/Documents/Arash/MECH493/2-segmentation/8bit/10x_8_EGFP-x_3448-y_5531.png,0,0,3448,5531
122,1,EGFP,EGFP,file:///C:/Users/MDL/Documents/Arash/MECH493/2-segmentation/8bit/10x_8_EGFP-x_3562-y_6123.png,0,0,3562,6123
122,2,EGFP,EGFP,file:///C:/Users/MDL/Documents/Arash/MECH493/2-segmentation/8bit/10x_8_EGFP-x_3562-y_6123.png,0,0,3562,6123
123,1,EGFP,EGFP,file:///C:/Users/MDL/Documents/Arash/MECH493/2-segmentation/8bit/10x_8_EGFP-x_3583-y_3544.png,0,0,3583,3544
124,1,EGFP,EGFP,file:///C:/Users/MDL/Documents/Arash/MECH493/2-segmentation/8bit/10x_8_EGFP-x_3627-y_2624.png,0,0,3627,2624
125,1,EGFP,EGFP,file:///C:/Users/MDL/Documents/Arash/MECH493/2-segmentation/8bit/10x_8_EGFP-x_3726-y_4299.png,0,0,3726,4299
126,1,EGFP,EGFP,file:///C:/Users/MDL/Documents/Arash/MECH493/2-segmentation/8bit/10x_8_EGFP-x_3914-y_6621.png,0,0,3914,6621
127,1,EGFP,EGFP,file:///C:/Users/MDL/Documents/Arash/MECH493/2-segmentation/8bit/10x_8_EGFP-x_3964-y_2899.png,0,0,3964,2899
128,1,EGFP,EGFP,file:///C:/Users/MDL/Documents/Arash/MECH493/2-segmentation/8bit/10x_8_EGFP-x_4237-y_2371.png,0,0,4237,2371
129,1,EGFP,EGFP,file:///C:/Users/MDL/Documents/Arash/MECH493/2-segmentation/8bit/10x_8_EGFP-x_4270-y_3841.png,0,0,4270,3841
130,1,EGFP,EGFP,file:///C:/Users/MDL/Documents/Arash/MECH493/2-segmentation/8bit/10x_8_EGFP-x_4309-y_5355.png,0,0,4309,5355
131,1,EGFP,EGFP,file:///C:/Users/MDL/Documents/Arash/MECH493/2-segmentation/8bit/10x_8_EGFP-x_4396-y_3755.png,0,0,4396,3755
132,1,EGFP,EGFP,file:///C:/Users/MDL/Documents/Arash/MECH493/2-segmentation/8bit/10x_8_EGFP-x_4516-y_3210.png,0,0,4516,3210
133,1,EGFP,EGFP,file:///C:/Users/MDL/Documents/Arash/MECH493/2-segmentation/8bit/10x_8_EGFP-x_4637-y_3116.png,0,0,4637,3116
134,1,EGFP,EGFP,file:///C:/Users/MDL/Documents/Arash/MECH493/2-segmentation/8bit/10x_8_EGFP-x_4701-y_4773.png,0,0,4701,4773
135,1,EGFP,EGFP,file:///C:/Users/MDL/Documents/Arash/MECH493/2-segmentation/8bit/10x_8_EGFP-x_4707-y_6748.png,0,0,4707,6748
136,1,EGFP,EGFP,file:///C:/Users/MDL/Documents/Arash/MECH493/2-segmentation/8bit/10x_8_EGFP-x_4761-y_6336.png,0,0,4761,6336
137,1,EGFP,EGFP,file:///C:/Users/MDL/Documents/Arash/MECH493/2-segmentation/8bit/10x_8_EGFP-x_4844-y_2332.png,0,0,4844,2332
139,1,EGFP,EGFP,file:///C:/Users/MDL/Documents/Arash/MECH493/2-segmentation/8bit/10x_8_EGFP-x_4935-y_6722.png,0,0,4935,6722
140,1,EGFP,EGFP,file:///C:/Users/MDL/Documents/Arash/MECH493/2-segmentation/8bit/10x_8_EGFP-x_4948-y_5670.png,0,0,4948,5670
141,1,EGFP,EGFP,file:///C:/Users/MDL/Documents/Arash/MECH493/2-segmentation/8bit/10x_8_EGFP-x_5144-y_6358.png,0,0,5144,6358
142,1,EGFP,EGFP,file:///C:/Users/MDL/Documents/Arash/MECH493/2-segmentation/8bit/10x_8_EGFP-x_5212-y_4556.png,0,0,5212,4556
143,1,EGFP,EGFP,file:///C:/Users/MDL/Documents/Arash/MECH493/2-segmentation/8bit/10x_8_EGFP-x_5214-y_3952.png,0,0,5214,3952
143,2,EGFP,EGFP,file:///C:/Users/MDL/Documents/Arash/MECH493/2-segmentation/8bit/10x_8_EGFP-x_5214-y_3952.png,0,0,5214,3952
144,1,EGFP,EGFP,file:///C:/Users/MDL/Documents/Arash/MECH493/2-segmentation/8bit/10x_8_EGFP-x_5238-y_5943.png,0,0,5238,5943
145,1,EGFP,EGFP,file:///C:/Users/MDL/Documents/Arash/MECH493/2-segmentation/8bit/10x_8_EGFP-x_5263-y_6345.png,0,0,5263,6345
146,1,EGFP,EGFP,file:///C:/Users/MDL/Documents/Arash/MECH493/2-segmentation/8bit/10x_8_EGFP-x_5396-y_2816.png,0,0,5396,2816
147,1,EGFP,EGFP,file:///C:/Users/MDL/Documents/Arash/MECH493/2-segmentation/8bit/10x_8_EGFP-x_5590-y_4252.png,0,0,5590,4252
148,1,EGFP,EGFP,file:///C:/Users/MDL/Documents/Arash/MECH493/2-segmentation/8bit/10x_8_EGFP-x_5637-y_4698.png,0,0,5637,4698
149,1,EGFP,EGFP,file:///C:/Users/MDL/Documents/Arash/MECH493/2-segmentation/8bit/10x_8_EGFP-x_5648-y_4935.png,0,0,5648,4935
150,1,EGFP,EGFP,file:///C:/Users/MDL/Documents/Arash/MECH493/2-segmentation/8bit/10x_8_EGFP-x_5870-y_5425.png,0,0,5870,5425
151,1,EGFP,EGFP,file:///C:/Users/MDL/Documents/Arash/MECH493/2-segmentation/8bit/10x_8_EGFP-x_5899-y_4241.png,0,0,5899,4241
152,1,EGFP,EGFP,file:///C:/Users/MDL/Documents/Arash/MECH493/2-segmentation/8bit/10x_8_EGFP-x_5995-y_3651.png,0,0,5995,3651
153,1,EGFP,EGFP,file:///C:/Users/MDL/Documents/Arash/MECH493/2-segmentation/8bit/10x_8_EGFP-x_6057-y_2705.png,0,0,6057,2705
154,1,EGFP,EGFP,file:///C:/Users/MDL/Documents/Arash/MECH493/2-segmentation/8bit/10x_8_EGFP-x_6158-y_5372.png,0,0,6158,5372
155,1,EGFP,EGFP,file:///C:/Users/MDL/Documents/Arash/MECH493/2-segmentation/8bit/10x_8_EGFP-x_6172-y_3044.png,0,0,6172,3044
156,1,EGFP,EGFP,file:///C:/Users/MDL/Documents/Arash/MECH493/2-segmentation/8bit/10x_8_EGFP-x_6232-y_5503.png,0,0,6232,5503
157,1,EGFP,EGFP,file:///C:/Users/MDL/Documents/Arash/MECH493/2-segmentation/8bit/10x_8_EGFP-x_6249-y_5956.png,0,0,6249,5956
158,1,EGFP,EGFP,file:///C:/Users/MDL/Documents/Arash/MECH493/2-segmentation/8bit/10x_8_EGFP-x_6312-y_3292.png,0,0,6312,3292
158,2,EGFP,EGFP,file:///C:/Users/MDL/Documents/Arash/MECH493/2-segmentation/8bit/10x_8_EGFP-x_6312-y_3292.png,0,0,6312,3292
159,1,EGFP,EGFP,file:///C:/Users/MDL/Documents/Arash/MECH493/2-segmentation/8bit/10x_8_EGFP-x_6360-y_5354.png,0,0,6360,5354
160,1,EGFP,EGFP,file:///C:/Users/MDL/Documents/Arash/MECH493/2-segmentation/8bit/10x_8_EGFP-x_6394-y_4441.png,0,0,6394,4441
161,1,EGFP,EGFP,file:///C:/Users/MDL/Documents/Arash/MECH493/2-segmentation/8bit/10x_8_EGFP-x_6609-y_5506.png,0,0,6609,5506
162,1,EGFP,EGFP,file:///C:/Users/MDL/Documents/Arash/MECH493/2-segmentation/8bit/10x_8_EGFP-x_6651-y_3597.png,0,0,6651,3597
163,1,EGFP,EGFP,file:///C:/Users/MDL/Documents/Arash/MECH493/2-segmentation/8bit/10x_8_EGFP-x_6668-y_5052.png,0,0,6668,5052
164,1,EGFP,EGFP,file:///C:/Users/MDL/Documents/Arash/MECH493/2-segmentation/8bit/10x_8_EGFP-x_6721-y_4577.png,0,0,6721,4577
165,1,EGFP,EGFP,file:///C:/Users/MDL/Documents/Arash/MECH493/2-segmentation/8bit/10x_8_EGFP-x_6743-y_4813.png,0,0,6743,4813
